…
**Question 4: Is there a geographical area of Vancouver where the city
planted more cherry trees? If so, does it differ by decade?** To start
off, I need to put the common Vancouver cherry trees together. I chose
the 8 most common cherry trees. This is so that there would be enough
data points for each species throughout the analysis.

``` r
com_cherry <- vancouver_trees %>% 
  filter(common_name %in% c("KWANZAN FLOWERING CHERRY", "AKEBONO FLOWERING CHERRY", "SCHUBERT CHOKECHERRY", "PINK PERFECTION CHERRY", "JAPANESE FLOWERING CHERRY", "HIGAN CHERRY", "MAZZARD CHERRY", "RANCHO SARGENT CHERRY"))

print(com_cherry)
```

    ## # A tibble: 15,349 × 20
    ##    tree_id civic_number std_street       genus_name species_name cultivar_name
    ##      <dbl>        <dbl> <chr>            <chr>      <chr>        <chr>        
    ##  1  155243          501 E KING EDWARD AV PRUNUS     SERRULATA    KWANZAN      
    ##  2  155251         4099 CAROLINA ST      PRUNUS     SERRULATA    KWANZAN      
    ##  3  155335          501 E KING EDWARD AV PRUNUS     SERRULATA    KWANZAN      
    ##  4  155336          501 E KING EDWARD AV PRUNUS     SERRULATA    KWANZAN      
    ##  5  155531          105 E 50TH AV        PRUNUS     X YEDOENSIS  AKEBONO      
    ##  6  155612         8340 PRINCE EDWARD ST PRUNUS     VIRGINIANA   SCHUBERT     
    ##  7  155709         4494 ST. GEORGE ST    PRUNUS     SERRULATA    KWANZAN      
    ##  8  156025         8023 LAUREL ST        PRUNUS     SERRULATA    KWANZAN      
    ##  9  156255          118 W KING EDWARD AV PRUNUS     SERRULATA    KWANZAN      
    ## 10  156258          138 W KING EDWARD AV PRUNUS     SERRULATA    KWANZAN      
    ## # ℹ 15,339 more rows
    ## # ℹ 14 more variables: common_name <chr>, assigned <chr>, root_barrier <chr>,
    ## #   plant_area <chr>, on_street_block <dbl>, on_street <chr>,
    ## #   neighbourhood_name <chr>, street_side_name <chr>, height_range_id <dbl>,
    ## #   diameter <dbl>, curb <chr>, date_planted <date>, longitude <dbl>,
    ## #   latitude <dbl>

**Summarizing** (4.Compute the proportion and counts in each category of
one categorical variable across the groups of another categorical
variable from your data. Do not use the function `table()`!)

``` r
freq_cher <- com_cherry %>%
  group_by(common_name, neighbourhood_name) %>%
  summarise(n = n(), .groups = "drop_last") %>%
  mutate(freq = n / sum(n))

print(freq_cher)
```

    ## # A tibble: 159 × 4
    ## # Groups:   common_name [8]
    ##    common_name              neighbourhood_name           n    freq
    ##    <chr>                    <chr>                    <int>   <dbl>
    ##  1 AKEBONO FLOWERING CHERRY ARBUTUS-RIDGE               61 0.0256 
    ##  2 AKEBONO FLOWERING CHERRY DOWNTOWN                     8 0.00336
    ##  3 AKEBONO FLOWERING CHERRY DUNBAR-SOUTHLANDS          234 0.0982 
    ##  4 AKEBONO FLOWERING CHERRY FAIRVIEW                    41 0.0172 
    ##  5 AKEBONO FLOWERING CHERRY GRANDVIEW-WOODLAND          90 0.0378 
    ##  6 AKEBONO FLOWERING CHERRY HASTINGS-SUNRISE           199 0.0835 
    ##  7 AKEBONO FLOWERING CHERRY KENSINGTON-CEDAR COTTAGE   122 0.0512 
    ##  8 AKEBONO FLOWERING CHERRY KERRISDALE                 160 0.0671 
    ##  9 AKEBONO FLOWERING CHERRY KILLARNEY                   48 0.0201 
    ## 10 AKEBONO FLOWERING CHERRY KITSILANO                   89 0.0373 
    ## # ℹ 149 more rows
…
Above I used the mutate() dplyr function to divide neighbourhood names
into their respective areas (Vancouver west & Vancouver east). This did
not make sense for me to do with a numerical variable with my data set
and what I wanted to do.

``` r
van_west <- as_tibble(cherry_area) %>%
filter(area == "van_west") %>%
  select(date_planted, common_name, area)
van_west
```

    ## # A tibble: 7,227 × 3
    ##    date_planted common_name               area    
    ##    <date>       <chr>                     <chr>   
    ##  1 NA           KWANZAN FLOWERING CHERRY  van_west
    ##  2 NA           KWANZAN FLOWERING CHERRY  van_west
    ##  3 NA           JAPANESE FLOWERING CHERRY van_west
    ##  4 NA           KWANZAN FLOWERING CHERRY  van_west
    ##  5 NA           HIGAN CHERRY              van_west
    ##  6 NA           KWANZAN FLOWERING CHERRY  van_west
    ##  7 NA           KWANZAN FLOWERING CHERRY  van_west
    ##  8 NA           KWANZAN FLOWERING CHERRY  van_west
    ##  9 NA           KWANZAN FLOWERING CHERRY  van_west
    ## 10 1996-03-18   AKEBONO FLOWERING CHERRY  van_west
    ## # ℹ 7,217 more rows

``` r
van_east <- as_tibble(cherry_area) %>%
filter(area == "van_east") %>%
  select(date_planted, common_name, area)
van_east
```

    ## # A tibble: 8,122 × 3
    ##    date_planted common_name              area    
    ##    <date>       <chr>                    <chr>   
    ##  1 NA           KWANZAN FLOWERING CHERRY van_east
    ##  2 NA           KWANZAN FLOWERING CHERRY van_east
    ##  3 NA           KWANZAN FLOWERING CHERRY van_east
    ##  4 NA           KWANZAN FLOWERING CHERRY van_east
    ##  5 1998-03-03   AKEBONO FLOWERING CHERRY van_east
    ##  6 1994-05-30   SCHUBERT CHOKECHERRY     van_east
    ##  7 1996-12-11   KWANZAN FLOWERING CHERRY van_east
    ##  8 NA           KWANZAN FLOWERING CHERRY van_east
    ##  9 NA           KWANZAN FLOWERING CHERRY van_east
    ## 10 NA           PINK PERFECTION CHERRY   van_east
    ## # ℹ 8,112 more rows
…
<!--------------------------- Start your work below --------------------------->

First I will untidy the vancouver_trees data below. I will do this using
the pivot_wider tidyverse function.

``` r
untidy <- vancouver_trees %>% 
  pivot_wider(id_cols = neighbourhood_name, names_from = diameter, values_from = height_range_id, 
              values_fn = length)
print(untidy)
```

    ## # A tibble: 22 × 521
    ##    neighbourhood_name       `10`   `4`  `18`   `9`   `5`  `15`  `14`  `16` `7.5`
    ##    <chr>                   <int> <int> <int> <int> <int> <int> <int> <int> <int>
    ##  1 MARPOLE                   133   258   125   150   174   103   135   125    60
    ##  2 KENSINGTON-CEDAR COTTA…   324   401   212   245   330   243   278   269   123
    ##  3 OAKRIDGE                  151   160    97   121   162    80   100   104    47
    ##  4 MOUNT PLEASANT            174   255   115   173   204   104   129   109    61
    ##  5 RENFREW-COLLINGWOOD       334   506   215   301   277   220   290   234   115
    ##  6 RILEY PARK                169   230   128   127   208   120   154   107    57
    ##  7 DOWNTOWN                  236   377    35   205   277    65    80    60    75
    ##  8 SUNSET                    179   316   200   165   249   149   174   175    89
    ##  9 ARBUTUS-RIDGE             137   223   157   101   175   106   113   108    49
    ## 10 GRANDVIEW-WOODLAND        153   349   141   158   242   152   155   122    71
    ## # ℹ 12 more rows
    ## # ℹ 511 more variables: `7.75` <int>, `4.5` <int>, `8` <int>, `10.25` <int>,
    ## #   `19.5` <int>, `9.75` <int>, `13.5` <int>, `3` <int>, `17` <int>,
    ## #   `13` <int>, `11.5` <int>, `15.75` <int>, `12` <int>, `21` <int>,
    ## #   `9.5` <int>, `13.75` <int>, `14.5` <int>, `6.5` <int>, `6` <int>,
    ## #   `12.5` <int>, `5.5` <int>, `30` <int>, `8.5` <int>, `7` <int>,
    ## #   `10.5` <int>, `3.25` <int>, `6.25` <int>, `12.75` <int>, `23` <int>, …
…
To clarify the above data is untidy because it has diameter observations
as columns.

Now I will tidy the data set vancouver_trees back to its original form.
I will do this using the pivot_longer tidyverse function.

``` r
tidy <- untidy %>%
  pivot_longer(cols = c(-neighbourhood_name), names_to = "diameter",
               values_to = "height_range_id")
print(tidy)
```

    ## # A tibble: 11,440 × 3
    ##    neighbourhood_name diameter height_range_id
    ##    <chr>              <chr>              <int>
    ##  1 MARPOLE            10                   133
    ##  2 MARPOLE            4                    258
    ##  3 MARPOLE            18                   125
    ##  4 MARPOLE            9                    150
    ##  5 MARPOLE            5                    174
    ##  6 MARPOLE            15                   103
    ##  7 MARPOLE            14                   135
    ##  8 MARPOLE            16                   125
    ##  9 MARPOLE            7.5                   60
    ## 10 MARPOLE            7.75                   6
    ## # ℹ 11,430 more rows
…
``` r
name_area <- cherry_area %>% 
  group_by(area, common_name, date_planted) %>% 
  summarise(Count = n())
```

    ## `summarise()` has grouped output by 'area', 'common_name'. You can override
    ## using the `.groups` argument.

``` r
print(name_area)
```

    ## # A tibble: 1,573 × 4
    ## # Groups:   area, common_name [16]
    ##    area     common_name              date_planted Count
    ##    <chr>    <chr>                    <date>       <int>
    ##  1 van_east AKEBONO FLOWERING CHERRY 1993-03-12       1
    ##  2 van_east AKEBONO FLOWERING CHERRY 1993-03-15       4
    ##  3 van_east AKEBONO FLOWERING CHERRY 1993-03-17       5
    ##  4 van_east AKEBONO FLOWERING CHERRY 1993-03-19       5
    ##  5 van_east AKEBONO FLOWERING CHERRY 1993-03-22       4
    ##  6 van_east AKEBONO FLOWERING CHERRY 1993-03-23       2
    ##  7 van_east AKEBONO FLOWERING CHERRY 1993-03-29       1
    ##  8 van_east AKEBONO FLOWERING CHERRY 1995-01-03       2
    ##  9 van_east AKEBONO FLOWERING CHERRY 1995-01-10       3
    ## 10 van_east AKEBONO FLOWERING CHERRY 1995-01-11       2
    ## # ℹ 1,563 more rows
…
``` r
freq_cherry <- cher_dat %>%
  group_by(common_name = "SCHUBERT CHOKECHERRY", Year) %>%
  summarise(n = n(), .groups = "drop_last") %>%
  mutate(freq = n / sum(n)) %>% 
  arrange(desc(freq))

print(freq_cherry)
```

    ## # A tibble: 32 × 4
    ## # Groups:   common_name [1]
    ##    common_name           Year     n   freq
    ##    <chr>                <dbl> <int>  <dbl>
    ##  1 SCHUBERT CHOKECHERRY    NA 11293 0.736 
    ##  2 SCHUBERT CHOKECHERRY  2012   285 0.0186
    ##  3 SCHUBERT CHOKECHERRY  2011   275 0.0179
    ##  4 SCHUBERT CHOKECHERRY  2013   273 0.0178
    ##  5 SCHUBERT CHOKECHERRY  1996   243 0.0158
    ##  6 SCHUBERT CHOKECHERRY  2008   240 0.0156
    ##  7 SCHUBERT CHOKECHERRY  2010   231 0.0150
    ##  8 SCHUBERT CHOKECHERRY  1990   226 0.0147
    ##  9 SCHUBERT CHOKECHERRY  2002   219 0.0143
    ## 10 SCHUBERT CHOKECHERRY  2009   217 0.0141
    ## # ℹ 22 more rows
…
