…
    # After using the glimpse function I am curious to see number of unique trees types (by common name) included in the data set.
    dim(distinct(vancouver_trees, common_name))

    ## [1] 634   1

    # Now that I know how many there are, I would like to get an idea of the common names of the trees included in this data set.
    distinct(vancouver_trees, common_name)

    ## # A tibble: 634 × 1
    ##    common_name          
    ##    <chr>                
    ##  1 BRANDON ELM          
    ##  2 JAPANESE ZELKOVA     
    ##  3 JAPANESE SNOWBELL    
    ##  4 AUTUMN APPLAUSE ASH  
    ##  5 HEDGE MAPLE          
    ##  6 CHANTICLEER PEAR     
    ##  7 COLUMNAR NORWAY MAPLE
    ##  8 CRIMEAN LINDEN       
    ##  9 ROSE OF SHARON       
    ## 10 RAYWOOD ASH          
    ## # ℹ 624 more rows
…
    ### I want to find out the number of times there was a building permit application submitted for a "One-Family Dwelling". I do this by using the dplyr() function filter() to filter through the data and count the number of variables labeled "One-Family Dwelling" in the specific_use_category
    dim(filter(building_permits, specific_use_category == "One-Family Dwelling"))

    ## [1] 4571   14

    ### I want to find out the date of the most recent data on building permits being issued in the city of vancouver. To do this I use the dplyr() function arrange(). The arrange() function would typically order the selected column in ascending order but I will also apply the desc() function to the issue_date column, this orders the data so that the most recent date of permit issued is first.
    arrange(building_permits, desc(issue_date))

    ## # A tibble: 20,680 × 14
    ##    permit_number issue_date project_value type_of_work                address   
    ##    <chr>         <date>             <dbl> <chr>                       <chr>     
    ##  1 BP-2019-01569 2020-04-29        15000  Demolition / Deconstruction 3272 W 27…
    ##  2 BP-2019-03180 2020-04-29       250000  Addition / Alteration       3070 W 49…
    ##  3 BP-2019-05369 2020-04-29        15000  Demolition / Deconstruction 4618 W 12…
    ##  4 BP-2020-01078 2020-04-29        20000  Addition / Alteration       1750 E 10…
    ##  5 BP-2020-01213 2020-04-29        31500  Addition / Alteration       1545 W 14…
    ##  6 DB-2019-04360 2020-04-29         2400  Addition / Alteration       4368 WIND…
    ##  7 DB-2019-05041 2020-04-29      1098168. New Building                6149 FREM…
    ##  8 DB-2019-05447 2020-04-29        50000  Addition / Alteration       1854 WILL…
    ##  9 DB-2020-01052 2020-04-29        18000  Addition / Alteration       237 W 26T…
    ## 10 BP-2019-03463 2020-04-29        15000  Demolition / Deconstruction 2735 W 38…
    ## # ℹ 20,670 more rows
    ## # ℹ 9 more variables: project_description <chr>, building_contractor <chr>,
    ## #   building_contractor_address <chr>, applicant <chr>,
    ## #   applicant_address <chr>, property_use <chr>, specific_use_category <chr>,
    ## #   year <dbl>, bi_id <dbl>
…
    ### I now know that there are seven different types of meter heads we have data on in this data set. 
    ### I would like to look at information that is specifically for the meter head labeled "twin".
    filter(parking_meters, meter_head == "Twin") 

    ## # A tibble: 8,614 × 22
    ##    meter_head r_mf_9a_6p r_mf_6p_10 r_sa_9a_6p r_sa_6p_10 r_su_9a_6p r_su_6p_10
    ##    <chr>      <chr>      <chr>      <chr>      <chr>      <chr>      <chr>     
    ##  1 Twin       $2.00      $4.00      $2.00      $4.00      $2.00      $4.00     
    ##  2 Twin       $1.00      $1.00      $1.00      $1.00      $1.00      $1.00     
    ##  3 Twin       $2.00      $1.00      $2.00      $1.00      $2.00      $1.00     
    ##  4 Twin       $2.00      $1.00      $2.00      $1.00      $2.00      $1.00     
    ##  5 Twin       $2.00      $3.00      $2.00      $3.00      $2.00      $3.00     
    ##  6 Twin       $4.00      $1.00      $4.00      $1.00      $4.00      $1.00     
    ##  7 Twin       $2.00      $1.00      $2.00      $1.00      $2.00      $1.00     
    ##  8 Twin       $2.00      $1.00      $2.00      $1.00      $2.00      $1.00     
    ##  9 Twin       $2.00      $1.00      $2.00      $1.00      $2.00      $1.00     
    ## 10 Twin       $2.00      $4.00      $2.00      $4.00      $2.00      $4.00     
    ## # ℹ 8,604 more rows
    ## # ℹ 15 more variables: rate_misc <chr>, time_in_effect <chr>, t_mf_9a_6p <chr>,
    ## #   t_mf_6p_10 <chr>, t_sa_9a_6p <chr>, t_sa_6p_10 <chr>, t_su_9a_6p <chr>,
    ## #   t_su_6p_10 <chr>, time_misc <chr>, credit_card <chr>, pay_phone <chr>,
    ## #   longitude <dbl>, latitude <dbl>, geo_local_area <chr>, meter_id <chr>
…
    ## # A tibble: 4 × 1
    ##   facilities_available
    ##   <chr>               
    ## 1 Recycling bins      
    ## 2 Green Bin / Organics
    ## 3 Unknown             
    ## 4 Not Available

    ### Now I want to check what the most recent year built is in the data set, to do this I use the arrange() function and order the year_built column in descending order.
    arrange(apt_buildings, desc(year_built)) %>%
      select(year_built)

    ## # A tibble: 3,455 × 1
    ##    year_built
    ##         <dbl>
    ##  1       2019
    ##  2       2019
    ##  3       2019
    ##  4       2019
    ##  5       2019
    ##  6       2018
    ##  7       2018
    ##  8       2018
    ##  9       2018
    ## 10       2017
    ## # ℹ 3,445 more rows
…
## Why I answered question 2:

## I wanted to see how many Lilac trees there are in the data set in a given neighborhood of vancouver and which streets they are located on. To do this I had to create a new variable filtered by trees with the common name Lilac in the data set. I then created a second new variable which I filtered through the old variable ‘lilac’ and only stored lilac trees in the west end neighborhood (in a new variable called ‘westlilac’)

## Question 5:

    pru <- filter(vancouver_trees, genus_name == "PRUNUS" )
    distinct(pru, common_name)

    ## # A tibble: 51 × 1
    ##    common_name              
    ##    <chr>                    
    ##  1 KWANZAN FLOWERING CHERRY 
    ##  2 NIGHT PURPLE LEAF PLUM   
    ##  3 AKEBONO FLOWERING CHERRY 
    ##  4 SCHUBERT CHOKECHERRY     
    ##  5 PISSARD PLUM             
    ##  6 PINK PERFECTION CHERRY   
    ##  7 JAPANESE FLOWERING CHERRY
    ##  8 HIGAN CHERRY             
    ##  9 MAZZARD CHERRY           
    ## 10 RANCHO SARGENT CHERRY    
    ## # ℹ 41 more rows

    pru %>%
      group_by(neighbourhood_name) %>%
    summarise(n = n())

    ## # A tibble: 22 × 2
    ##    neighbourhood_name           n
    ##    <chr>                    <int>
    ##  1 ARBUTUS-RIDGE             1514
    ##  2 DOWNTOWN                   171
    ##  3 DUNBAR-SOUTHLANDS         2554
    ##  4 FAIRVIEW                   635
    ##  5 GRANDVIEW-WOODLAND        1121
    ##  6 HASTINGS-SUNRISE          1932
    ##  7 KENSINGTON-CEDAR COTTAGE  1851
    ##  8 KERRISDALE                1593
    ##  9 KILLARNEY                 1143
    ## 10 KITSILANO                 1194
    ## # ℹ 12 more rows

    distinct(vancouver_trees, diameter) %>%
      select(diameter) %>%
      arrange(desc(diameter))

    ## # A tibble: 520 × 1
    ##    diameter
    ##       <dbl>
    ##  1      435
    ##  2      317
    ##  3      305
    ##  4      182
    ##  5      161
    ##  6      156
    ##  7      151
    ##  8      144
    ##  9      141
    ## 10      131
    ## # ℹ 510 more rows

    filter(pru, diameter > 10)

    ## # A tibble: 19,252 × 20
    ##    tree_id civic_number std_street       genus_name species_name cultivar_name  
    ##      <dbl>        <dbl> <chr>            <chr>      <chr>        <chr>          
    ##  1  155243          501 E KING EDWARD AV PRUNUS     SERRULATA    KWANZAN        
    ##  2  155335          501 E KING EDWARD AV PRUNUS     SERRULATA    KWANZAN        
    ##  3  155971         1795 E 49TH AV        PRUNUS     CERASIFERA   ATROPURPUREUM  
    ##  4  156025         8023 LAUREL ST        PRUNUS     SERRULATA    KWANZAN        
    ##  5  156255          118 W KING EDWARD AV PRUNUS     SERRULATA    KWANZAN        
    ##  6  157379         3350 DUMFRIES ST      PRUNUS     SERRULATA    PINK PERFECTION
    ##  7  157433         4255 LAUREL ST        PRUNUS     CERASIFERA   ATROPURPUREUM  
    ##  8  157434         4255 LAUREL ST        PRUNUS     CERASIFERA   ATROPURPUREUM  
    ##  9  157482         1330 W 8TH AV         PRUNUS     SERRULATA    KWANZAN        
    ## 10  157503          607 W 29TH AV        PRUNUS     SERRULATA    <NA>           
    ## # ℹ 19,242 more rows
    ## # ℹ 14 more variables: common_name <chr>, assigned <chr>, root_barrier <chr>,
    ## #   plant_area <chr>, on_street_block <dbl>, on_street <chr>,
    ## #   neighbourhood_name <chr>, street_side_name <chr>, height_range_id <dbl>,
    ## #   diameter <dbl>, curb <chr>, date_planted <date>, longitude <dbl>,
    ## #   latitude <dbl>
…
### Histograms are a nice way to look at the distribution of a numeric variable, I was curious after filtering for the diameters of trees in the genus prunus in question 5, what the distribution of the variable diameter looks like for the genus prunus under 50 (since 0-50 seems to be where majority of the data points lie).

## Question 7:

    dt_tib <- as_tibble(pru) %>%
    filter(neighbourhood_name == "DOWNTOWN") %>%
      select(date_planted, common_name, neighbourhood_name)

    dt_tib

    ## # A tibble: 171 × 3
    ##    date_planted common_name              neighbourhood_name
    ##    <date>       <chr>                    <chr>             
    ##  1 1995-03-21   RANCHO SARGENT CHERRY    DOWNTOWN          
    ##  2 1995-04-28   RANCHO SARGENT CHERRY    DOWNTOWN          
    ##  3 NA           KWANZAN FLOWERING CHERRY DOWNTOWN          
    ##  4 2008-03-17   RANCHO SARGENT CHERRY    DOWNTOWN          
    ##  5 NA           KWANZAN FLOWERING CHERRY DOWNTOWN          
    ##  6 2011-03-02   RANCHO SARGENT CHERRY    DOWNTOWN          
    ##  7 2012-04-13   RANCHO SARGENT CHERRY    DOWNTOWN          
    ##  8 2012-04-13   RANCHO SARGENT CHERRY    DOWNTOWN          
    ##  9 NA           KWANZAN FLOWERING CHERRY DOWNTOWN          
    ## 10 2012-04-13   RANCHO SARGENT CHERRY    DOWNTOWN          
    ## # ℹ 161 more rows
…
